<?xml version="1.0" encoding="utf-8" standalone="no"?>
<!DOCTYPE svg PUBLIC "-//W3C//DTD SVG 1.1//EN"
  "http://www.w3.org/Graphics/SVG/1.1/DTD/svg11.dtd">
<!-- Created with matplotlib (http://matplotlib.org/) -->
<svg height="345pt" version="1.1" viewBox="0 0 460 345" width="460pt" xmlns="http://www.w3.org/2000/svg" xmlns:xlink="http://www.w3.org/1999/xlink">
 <defs>
  <style type="text/css">
*{stroke-linecap:butt;stroke-linejoin:round;}
  </style>
 </defs>
 <g id="figure_1">
  <g id="patch_1">
   <path d="M 0 345.6 
L 460.8 345.6 
L 460.8 0 
L 0 0 
z
" style="fill:#ffffff;"/>
  </g>
  <g id="axes_1">
   <g id="patch_2">
    <path d="M 57.6 307.584 
L 414.72 307.584 
L 414.72 41.472 
L 57.6 41.472 
z
" style="fill:#ffffff;"/>
   </g>
   <g id="PathCollection_1">
    <defs>
     <path d="M 0 1.581139 
C 0.419323 1.581139 0.821528 1.41454 1.118034 1.118034 
C 1.41454 0.821528 1.581139 0.419323 1.581139 0 
C 1.581139 -0.419323 1.41454 -0.821528 1.118034 -1.118034 
C 0.821528 -1.41454 0.419323 -1.581139 0 -1.581139 
C -0.419323 -1.581139 -0.821528 -1.41454 -1.118034 -1.118034 
C -1.41454 -0.821528 -1.581139 -0.419323 -1.581139 0 
C -1.581139 0.419323 -1.41454 0.821528 -1.118034 1.118034 
C -0.821528 1.41454 -0.419323 1.581139 0 1.581139 
z
" id="C0_0_59cd33b04e"/>
    </defs>
    <g clip-path="url(#p1559e404f7)">
     <use style="fill:#b3ff5c;stroke:#b3ff5c;" x="161.124178" xlink:href="#C0_0_59cd33b04e" y="247.747449"/>
    </g>
    <g clip-path="url(#p1559e404f7)">
     <use style="fill:#b3ff5c;stroke:#b3ff5c;" x="150.404774" xlink:href="#C0_0_59cd33b04e" y="236.135554"/>
    </g>
    <g clip-path="url(#p1559e404f7)">
     <use style="fill:#b3ff5c;stroke:#b3ff5c;" x="144.279401" xlink:href="#C0_0_59cd33b04e" y="238.07087"/>
    </g>
    <g clip-path="url(#p1559e404f7)">
     <use style="fill:#b3ff5c;stroke:#b3ff5c;" x="148.873431" xlink:href="#C0_0_59cd33b04e" y="237.425765"/>
    </g>
    <g clip-path="url(#p1559e404f7)">
     <use style="fill:#b3ff5c;stroke:#b3ff5c;" x="182.562984" xlink:href="#C0_0_59cd33b04e" y="241.296397"/>
    </g>
    <g clip-path="url(#p1559e404f7)">
     <use style="fill:#b3ff5c;stroke:#b3ff5c;" x="151.936118" xlink:href="#C0_0_59cd33b04e" y="242.586607"/>
    </g>
    <g clip-path="url(#p1559e404f7)">
     <use style="fill:#b3ff5c;stroke:#b3ff5c;" x="182.562984" xlink:href="#C0_0_59cd33b04e" y="240.006186"/>
    </g>
    <g clip-path="url(#p1559e404f7)">
     <use style="fill:#b3ff5c;stroke:#b3ff5c;" x="171.843581" xlink:href="#C0_0_59cd33b04e" y="236.135554"/>
    </g>
    <g clip-path="url(#p1559e404f7)">
     <use style="fill:#b3ff5c;stroke:#b3ff5c;" x="141.216715" xlink:href="#C0_0_59cd33b04e" y="237.425765"/>
    </g>
    <g clip-path="url(#p1559e404f7)">
     <use style="fill:#b3ff5c;stroke:#b3ff5c;" x="165.718208" xlink:href="#C0_0_59cd33b04e" y="234.845344"/>
    </g>
    <g clip-path="url(#p1559e404f7)">
     <use style="fill:#b3ff5c;stroke:#b3ff5c;" x="145.810745" xlink:href="#C0_0_59cd33b04e" y="246.457239"/>
    </g>
    <g clip-path="url(#p1559e404f7)">
     <use style="fill:#b3ff5c;stroke:#b3ff5c;" x="159.592834" xlink:href="#C0_0_59cd33b04e" y="238.715975"/>
    </g>
    <g clip-path="url(#p1559e404f7)">
     <use style="fill:#b3ff5c;stroke:#b3ff5c;" x="145.810745" xlink:href="#C0_0_59cd33b04e" y="243.876818"/>
    </g>
    <g clip-path="url(#p1559e404f7)">
     <use style="fill:#b3ff5c;stroke:#b3ff5c;" x="176.437611" xlink:href="#C0_0_59cd33b04e" y="242.586607"/>
    </g>
    <g clip-path="url(#p1559e404f7)">
     <use style="fill:#b3ff5c;stroke:#b3ff5c;" x="153.467461" xlink:href="#C0_0_59cd33b04e" y="234.200239"/>
    </g>
    <g clip-path="url(#p1559e404f7)">
     <use style="fill:#b3ff5c;stroke:#b3ff5c;" x="184.094327" xlink:href="#C0_0_59cd33b04e" y="241.296397"/>
    </g>
    <g clip-path="url(#p1559e404f7)">
     <use style="fill:#b3ff5c;stroke:#b3ff5c;" x="162.655521" xlink:href="#C0_0_59cd33b04e" y="247.102344"/>
    </g>
    <g clip-path="url(#p1559e404f7)">
     <use style="fill:#b3ff5c;stroke:#b3ff5c;" x="142.748058" xlink:href="#C0_0_59cd33b04e" y="234.200239"/>
    </g>
    <g clip-path="url(#p1559e404f7)">
     <use style="fill:#b3ff5c;stroke:#b3ff5c;" x="164.186864" xlink:href="#C0_0_59cd33b04e" y="247.102344"/>
    </g>
    <g clip-path="url(#p1559e404f7)">
     <use style="fill:#b3ff5c;stroke:#b3ff5c;" x="171.843581" xlink:href="#C0_0_59cd33b04e" y="238.07087"/>
    </g>
    <g clip-path="url(#p1559e404f7)">
     <use style="fill:#b3ff5c;stroke:#b3ff5c;" x="109.058505" xlink:href="#C0_0_59cd33b04e" y="184.527132"/>
    </g>
    <g clip-path="url(#p1559e404f7)">
     <use style="fill:#b3ff5c;stroke:#b3ff5c;" x="98.339102" xlink:href="#C0_0_59cd33b04e" y="181.301605"/>
    </g>
    <g clip-path="url(#p1559e404f7)">
     <use style="fill:#b3ff5c;stroke:#b3ff5c;" x="73.837609" xlink:href="#C0_0_59cd33b04e" y="182.591816"/>
    </g>
    <g clip-path="url(#p1559e404f7)">
     <use style="fill:#b3ff5c;stroke:#b3ff5c;" x="83.025669" xlink:href="#C0_0_59cd33b04e" y="183.236921"/>
    </g>
    <g clip-path="url(#p1559e404f7)">
     <use style="fill:#b3ff5c;stroke:#b3ff5c;" x="87.619699" xlink:href="#C0_0_59cd33b04e" y="178.721184"/>
    </g>
    <g clip-path="url(#p1559e404f7)">
     <use style="fill:#b3ff5c;stroke:#b3ff5c;" x="93.745072" xlink:href="#C0_0_59cd33b04e" y="181.301605"/>
    </g>
    <g clip-path="url(#p1559e404f7)">
     <use style="fill:#b3ff5c;stroke:#b3ff5c;" x="109.058505" xlink:href="#C0_0_59cd33b04e" y="177.430974"/>
    </g>
    <g clip-path="url(#p1559e404f7)">
     <use style="fill:#b3ff5c;stroke:#b3ff5c;" x="95.276415" xlink:href="#C0_0_59cd33b04e" y="181.946711"/>
    </g>
    <g clip-path="url(#p1559e404f7)">
     <use style="fill:#b3ff5c;stroke:#b3ff5c;" x="89.151042" xlink:href="#C0_0_59cd33b04e" y="174.205447"/>
    </g>
    <g clip-path="url(#p1559e404f7)">
     <use style="fill:#b3ff5c;stroke:#b3ff5c;" x="86.088355" xlink:href="#C0_0_59cd33b04e" y="177.430974"/>
    </g>
    <g clip-path="url(#p1559e404f7)">
     <use style="fill:#b3ff5c;stroke:#b3ff5c;" x="110.589848" xlink:href="#C0_0_59cd33b04e" y="176.140763"/>
    </g>
    <g clip-path="url(#p1559e404f7)">
     <use style="fill:#b3ff5c;stroke:#b3ff5c;" x="93.745072" xlink:href="#C0_0_59cd33b04e" y="185.172237"/>
    </g>
    <g clip-path="url(#p1559e404f7)">
     <use style="fill:#b3ff5c;stroke:#b3ff5c;" x="99.870445" xlink:href="#C0_0_59cd33b04e" y="185.817342"/>
    </g>
    <g clip-path="url(#p1559e404f7)">
     <use style="fill:#b3ff5c;stroke:#b3ff5c;" x="95.276415" xlink:href="#C0_0_59cd33b04e" y="184.527132"/>
    </g>
    <g clip-path="url(#p1559e404f7)">
     <use style="fill:#b3ff5c;stroke:#b3ff5c;" x="87.619699" xlink:href="#C0_0_59cd33b04e" y="180.011395"/>
    </g>
    <g clip-path="url(#p1559e404f7)">
     <use style="fill:#b3ff5c;stroke:#b3ff5c;" x="101.401788" xlink:href="#C0_0_59cd33b04e" y="178.721184"/>
    </g>
    <g clip-path="url(#p1559e404f7)">
     <use style="fill:#b3ff5c;stroke:#b3ff5c;" x="73.837609" xlink:href="#C0_0_59cd33b04e" y="187.752658"/>
    </g>
    <g clip-path="url(#p1559e404f7)">
     <use style="fill:#b3ff5c;stroke:#b3ff5c;" x="92.213729" xlink:href="#C0_0_59cd33b04e" y="177.430974"/>
    </g>
    <g clip-path="url(#p1559e404f7)">
     <use style="fill:#b3ff5c;stroke:#b3ff5c;" x="101.401788" xlink:href="#C0_0_59cd33b04e" y="174.850553"/>
    </g>
    <g clip-path="url(#p1559e404f7)">
     <use style="fill:#b3ff5c;stroke:#b3ff5c;" x="99.870445" xlink:href="#C0_0_59cd33b04e" y="181.946711"/>
    </g>
    <g clip-path="url(#p1559e404f7)">
     <use style="fill:#b3ff5c;stroke:#b3ff5c;" x="226.97194" xlink:href="#C0_0_59cd33b04e" y="287.743977"/>
    </g>
    <g clip-path="url(#p1559e404f7)">
     <use style="fill:#b3ff5c;stroke:#b3ff5c;" x="242.285373" xlink:href="#C0_0_59cd33b04e" y="285.808661"/>
    </g>
    <g clip-path="url(#p1559e404f7)">
     <use style="fill:#b3ff5c;stroke:#b3ff5c;" x="231.56597" xlink:href="#C0_0_59cd33b04e" y="286.453766"/>
    </g>
    <g clip-path="url(#p1559e404f7)">
     <use style="fill:#b3ff5c;stroke:#b3ff5c;" x="233.097313" xlink:href="#C0_0_59cd33b04e" y="285.808661"/>
    </g>
    <g clip-path="url(#p1559e404f7)">
     <use style="fill:#b3ff5c;stroke:#b3ff5c;" x="226.97194" xlink:href="#C0_0_59cd33b04e" y="292.259714"/>
    </g>
    <g clip-path="url(#p1559e404f7)">
     <use style="fill:#b3ff5c;stroke:#b3ff5c;" x="242.285373" xlink:href="#C0_0_59cd33b04e" y="289.034187"/>
    </g>
    <g clip-path="url(#p1559e404f7)">
     <use style="fill:#b3ff5c;stroke:#b3ff5c;" x="231.56597" xlink:href="#C0_0_59cd33b04e" y="295.48524"/>
    </g>
    <g clip-path="url(#p1559e404f7)">
     <use style="fill:#b3ff5c;stroke:#b3ff5c;" x="240.75403" xlink:href="#C0_0_59cd33b04e" y="294.19503"/>
    </g>
    <g clip-path="url(#p1559e404f7)">
     <use style="fill:#b3ff5c;stroke:#b3ff5c;" x="219.315224" xlink:href="#C0_0_59cd33b04e" y="290.324398"/>
    </g>
    <g clip-path="url(#p1559e404f7)">
     <use style="fill:#b3ff5c;stroke:#b3ff5c;" x="231.56597" xlink:href="#C0_0_59cd33b04e" y="289.034187"/>
    </g>
    <g clip-path="url(#p1559e404f7)">
     <use style="fill:#b3ff5c;stroke:#b3ff5c;" x="231.56597" xlink:href="#C0_0_59cd33b04e" y="292.259714"/>
    </g>
    <g clip-path="url(#p1559e404f7)">
     <use style="fill:#b3ff5c;stroke:#b3ff5c;" x="237.691343" xlink:href="#C0_0_59cd33b04e" y="292.259714"/>
    </g>
    <g clip-path="url(#p1559e404f7)">
     <use style="fill:#b3ff5c;stroke:#b3ff5c;" x="234.628657" xlink:href="#C0_0_59cd33b04e" y="283.873345"/>
    </g>
    <g clip-path="url(#p1559e404f7)">
     <use style="fill:#b3ff5c;stroke:#b3ff5c;" x="236.16" xlink:href="#C0_0_59cd33b04e" y="287.743977"/>
    </g>
    <g clip-path="url(#p1559e404f7)">
     <use style="fill:#b3ff5c;stroke:#b3ff5c;" x="222.37791" xlink:href="#C0_0_59cd33b04e" y="293.549924"/>
    </g>
    <g clip-path="url(#p1559e404f7)">
     <use style="fill:#b3ff5c;stroke:#b3ff5c;" x="233.097313" xlink:href="#C0_0_59cd33b04e" y="295.48524"/>
    </g>
    <g clip-path="url(#p1559e404f7)">
     <use style="fill:#b3ff5c;stroke:#b3ff5c;" x="228.503283" xlink:href="#C0_0_59cd33b04e" y="283.873345"/>
    </g>
    <g clip-path="url(#p1559e404f7)">
     <use style="fill:#b3ff5c;stroke:#b3ff5c;" x="240.75403" xlink:href="#C0_0_59cd33b04e" y="292.904819"/>
    </g>
    <g clip-path="url(#p1559e404f7)">
     <use style="fill:#b3ff5c;stroke:#b3ff5c;" x="234.628657" xlink:href="#C0_0_59cd33b04e" y="288.389082"/>
    </g>
    <g clip-path="url(#p1559e404f7)">
     <use style="fill:#b3ff5c;stroke:#b3ff5c;" x="234.628657" xlink:href="#C0_0_59cd33b04e" y="290.969503"/>
    </g>
    <g clip-path="url(#p1559e404f7)">
     <use style="fill:#a85cff;stroke:#a85cff;" x="383.168958" xlink:href="#C0_0_59cd33b04e" y="178.076079"/>
    </g>
    <g clip-path="url(#p1559e404f7)">
     <use style="fill:#a85cff;stroke:#a85cff;" x="392.357018" xlink:href="#C0_0_59cd33b04e" y="178.076079"/>
    </g>
    <g clip-path="url(#p1559e404f7)">
     <use style="fill:#a85cff;stroke:#a85cff;" x="375.512241" xlink:href="#C0_0_59cd33b04e" y="185.817342"/>
    </g>
    <g clip-path="url(#p1559e404f7)">
     <use style="fill:#a85cff;stroke:#a85cff;" x="392.357018" xlink:href="#C0_0_59cd33b04e" y="180.6565"/>
    </g>
    <g clip-path="url(#p1559e404f7)">
     <use style="fill:#a85cff;stroke:#a85cff;" x="390.825675" xlink:href="#C0_0_59cd33b04e" y="180.6565"/>
    </g>
    <g clip-path="url(#p1559e404f7)">
     <use style="fill:#a85cff;stroke:#a85cff;" x="389.294331" xlink:href="#C0_0_59cd33b04e" y="183.882027"/>
    </g>
    <g clip-path="url(#p1559e404f7)">
     <use style="fill:#a85cff;stroke:#a85cff;" x="384.700301" xlink:href="#C0_0_59cd33b04e" y="190.333079"/>
    </g>
    <g clip-path="url(#p1559e404f7)">
     <use style="fill:#a85cff;stroke:#a85cff;" x="378.574928" xlink:href="#C0_0_59cd33b04e" y="181.301605"/>
    </g>
    <g clip-path="url(#p1559e404f7)">
     <use style="fill:#a85cff;stroke:#a85cff;" x="384.700301" xlink:href="#C0_0_59cd33b04e" y="180.6565"/>
    </g>
    <g clip-path="url(#p1559e404f7)">
     <use style="fill:#a85cff;stroke:#a85cff;" x="369.386868" xlink:href="#C0_0_59cd33b04e" y="186.462448"/>
    </g>
    <g clip-path="url(#p1559e404f7)">
     <use style="fill:#a85cff;stroke:#a85cff;" x="398.482391" xlink:href="#C0_0_59cd33b04e" y="184.527132"/>
    </g>
    <g clip-path="url(#p1559e404f7)">
     <use style="fill:#a85cff;stroke:#a85cff;" x="380.106271" xlink:href="#C0_0_59cd33b04e" y="189.687974"/>
    </g>
    <g clip-path="url(#p1559e404f7)">
     <use style="fill:#a85cff;stroke:#a85cff;" x="396.951048" xlink:href="#C0_0_59cd33b04e" y="179.36629"/>
    </g>
    <g clip-path="url(#p1559e404f7)">
     <use style="fill:#a85cff;stroke:#a85cff;" x="370.918212" xlink:href="#C0_0_59cd33b04e" y="184.527132"/>
    </g>
    <g clip-path="url(#p1559e404f7)">
     <use style="fill:#a85cff;stroke:#a85cff;" x="369.386868" xlink:href="#C0_0_59cd33b04e" y="186.462448"/>
    </g>
    <g clip-path="url(#p1559e404f7)">
     <use style="fill:#a85cff;stroke:#a85cff;" x="398.482391" xlink:href="#C0_0_59cd33b04e" y="185.817342"/>
    </g>
    <g clip-path="url(#p1559e404f7)">
     <use style="fill:#a85cff;stroke:#a85cff;" x="364.792838" xlink:href="#C0_0_59cd33b04e" y="180.6565"/>
    </g>
    <g clip-path="url(#p1559e404f7)">
     <use style="fill:#a85cff;stroke:#a85cff;" x="398.482391" xlink:href="#C0_0_59cd33b04e" y="187.107553"/>
    </g>
    <g clip-path="url(#p1559e404f7)">
     <use style="fill:#a85cff;stroke:#a85cff;" x="373.980898" xlink:href="#C0_0_59cd33b04e" y="180.6565"/>
    </g>
    <g clip-path="url(#p1559e404f7)">
     <use style="fill:#a85cff;stroke:#a85cff;" x="366.324182" xlink:href="#C0_0_59cd33b04e" y="176.140763"/>
    </g>
    <g clip-path="url(#p1559e404f7)">
     <use style="fill:#ffa85c;stroke:#ffa85c;" x="354.073435" xlink:href="#C0_0_59cd33b04e" y="63.892444"/>
    </g>
    <g clip-path="url(#p1559e404f7)">
     <use style="fill:#ffa85c;stroke:#ffa85c;" x="346.416719" xlink:href="#C0_0_59cd33b04e" y="61.312023"/>
    </g>
    <g clip-path="url(#p1559e404f7)">
     <use style="fill:#ffa85c;stroke:#ffa85c;" x="358.667465" xlink:href="#C0_0_59cd33b04e" y="56.796286"/>
    </g>
    <g clip-path="url(#p1559e404f7)">
     <use style="fill:#ffa85c;stroke:#ffa85c;" x="332.634629" xlink:href="#C0_0_59cd33b04e" y="63.247339"/>
    </g>
    <g clip-path="url(#p1559e404f7)">
     <use style="fill:#ffa85c;stroke:#ffa85c;" x="347.948062" xlink:href="#C0_0_59cd33b04e" y="56.151181"/>
    </g>
    <g clip-path="url(#p1559e404f7)">
     <use style="fill:#ffa85c;stroke:#ffa85c;" x="357.136122" xlink:href="#C0_0_59cd33b04e" y="63.892444"/>
    </g>
    <g clip-path="url(#p1559e404f7)">
     <use style="fill:#ffa85c;stroke:#ffa85c;" x="347.948062" xlink:href="#C0_0_59cd33b04e" y="58.086497"/>
    </g>
    <g clip-path="url(#p1559e404f7)">
     <use style="fill:#ffa85c;stroke:#ffa85c;" x="352.542092" xlink:href="#C0_0_59cd33b04e" y="62.602234"/>
    </g>
    <g clip-path="url(#p1559e404f7)">
     <use style="fill:#ffa85c;stroke:#ffa85c;" x="332.634629" xlink:href="#C0_0_59cd33b04e" y="54.86097"/>
    </g>
    <g clip-path="url(#p1559e404f7)">
     <use style="fill:#ffa85c;stroke:#ffa85c;" x="341.822689" xlink:href="#C0_0_59cd33b04e" y="61.957128"/>
    </g>
    <g clip-path="url(#p1559e404f7)">
     <use style="fill:#ffa85c;stroke:#ffa85c;" x="351.010748" xlink:href="#C0_0_59cd33b04e" y="61.312023"/>
    </g>
    <g clip-path="url(#p1559e404f7)">
     <use style="fill:#ffa85c;stroke:#ffa85c;" x="344.885375" xlink:href="#C0_0_59cd33b04e" y="60.666918"/>
    </g>
    <g clip-path="url(#p1559e404f7)">
     <use style="fill:#ffa85c;stroke:#ffa85c;" x="340.291345" xlink:href="#C0_0_59cd33b04e" y="56.796286"/>
    </g>
    <g clip-path="url(#p1559e404f7)">
     <use style="fill:#ffa85c;stroke:#ffa85c;" x="352.542092" xlink:href="#C0_0_59cd33b04e" y="54.86097"/>
    </g>
    <g clip-path="url(#p1559e404f7)">
     <use style="fill:#ffa85c;stroke:#ffa85c;" x="357.136122" xlink:href="#C0_0_59cd33b04e" y="60.666918"/>
    </g>
    <g clip-path="url(#p1559e404f7)">
     <use style="fill:#ffa85c;stroke:#ffa85c;" x="351.010748" xlink:href="#C0_0_59cd33b04e" y="57.441391"/>
    </g>
    <g clip-path="url(#p1559e404f7)">
     <use style="fill:#ffa85c;stroke:#ffa85c;" x="343.354032" xlink:href="#C0_0_59cd33b04e" y="58.086497"/>
    </g>
    <g clip-path="url(#p1559e404f7)">
     <use style="fill:#ffa85c;stroke:#ffa85c;" x="334.165972" xlink:href="#C0_0_59cd33b04e" y="58.086497"/>
    </g>
    <g clip-path="url(#p1559e404f7)">
     <use style="fill:#ffa85c;stroke:#ffa85c;" x="343.354032" xlink:href="#C0_0_59cd33b04e" y="53.57076"/>
    </g>
    <g clip-path="url(#p1559e404f7)">
     <use style="fill:#ffa85c;stroke:#ffa85c;" x="332.634629" xlink:href="#C0_0_59cd33b04e" y="54.86097"/>
    </g>
   </g>
   <g id="matplotlib.axis_1">
    <g id="xtick_1">
     <g id="line2d_1">
      <defs>
       <path d="M 0 0 
L 0 3.5 
" id="m8f661b6c5c" style="stroke:#000000;stroke-width:0.8;"/>
      </defs>
      <g>
       <use style="stroke:#000000;stroke-width:0.8;" x="92.213729" xlink:href="#m8f661b6c5c" y="307.584"/>
      </g>
     </g>
     <g id="text_1">
      <!-- −50 -->
      <defs>
       <path d="M 10.59375 35.5 
L 73.1875 35.5 
L 73.1875 27.203125 
L 10.59375 27.203125 
z
" id="DejaVuSans-2212"/>
       <path d="M 10.796875 72.90625 
L 49.515625 72.90625 
L 49.515625 64.59375 
L 19.828125 64.59375 
L 19.828125 46.734375 
Q 21.96875 47.46875 24.109375 47.828125 
Q 26.265625 48.1875 28.421875 48.1875 
Q 40.625 48.1875 47.75 41.5 
Q 54.890625 34.8125 54.890625 23.390625 
Q 54.890625 11.625 47.5625 5.09375 
Q 40.234375 -1.421875 26.90625 -1.421875 
Q 22.3125 -1.421875 17.546875 -0.640625 
Q 12.796875 0.140625 7.71875 1.703125 
L 7.71875 11.625 
Q 12.109375 9.234375 16.796875 8.0625 
Q 21.484375 6.890625 26.703125 6.890625 
Q 35.15625 6.890625 40.078125 11.328125 
Q 45.015625 15.765625 45.015625 23.390625 
Q 45.015625 31 40.078125 35.4375 
Q 35.15625 39.890625 26.703125 39.890625 
Q 22.75 39.890625 18.8125 39.015625 
Q 14.890625 38.140625 10.796875 36.28125 
z
" id="DejaVuSans-35"/>
       <path d="M 31.78125 66.40625 
Q 24.171875 66.40625 20.328125 58.90625 
Q 16.5 51.421875 16.5 36.375 
Q 16.5 21.390625 20.328125 13.890625 
Q 24.171875 6.390625 31.78125 6.390625 
Q 39.453125 6.390625 43.28125 13.890625 
Q 47.125 21.390625 47.125 36.375 
Q 47.125 51.421875 43.28125 58.90625 
Q 39.453125 66.40625 31.78125 66.40625 
z
M 31.78125 74.21875 
Q 44.046875 74.21875 50.515625 64.515625 
Q 56.984375 54.828125 56.984375 36.375 
Q 56.984375 17.96875 50.515625 8.265625 
Q 44.046875 -1.421875 31.78125 -1.421875 
Q 19.53125 -1.421875 13.0625 8.265625 
Q 6.59375 17.96875 6.59375 36.375 
Q 6.59375 54.828125 13.0625 64.515625 
Q 19.53125 74.21875 31.78125 74.21875 
z
" id="DejaVuSans-30"/>
      </defs>
      <g transform="translate(81.661385 322.182437)scale(0.1 -0.1)">
       <use xlink:href="#DejaVuSans-2212"/>
       <use x="83.789062" xlink:href="#DejaVuSans-35"/>
       <use x="147.412109" xlink:href="#DejaVuSans-30"/>
      </g>
     </g>
    </g>
    <g id="xtick_2">
     <g id="line2d_2">
      <g>
       <use style="stroke:#000000;stroke-width:0.8;" x="168.780894" xlink:href="#m8f661b6c5c" y="307.584"/>
      </g>
     </g>
     <g id="text_2">
      <!-- 0 -->
      <g transform="translate(165.599644 322.182437)scale(0.1 -0.1)">
       <use xlink:href="#DejaVuSans-30"/>
      </g>
     </g>
    </g>
    <g id="xtick_3">
     <g id="line2d_3">
      <g>
       <use style="stroke:#000000;stroke-width:0.8;" x="245.34806" xlink:href="#m8f661b6c5c" y="307.584"/>
      </g>
     </g>
     <g id="text_3">
      <!-- 50 -->
      <g transform="translate(238.98556 322.182437)scale(0.1 -0.1)">
       <use xlink:href="#DejaVuSans-35"/>
       <use x="63.623047" xlink:href="#DejaVuSans-30"/>
      </g>
     </g>
    </g>
    <g id="xtick_4">
     <g id="line2d_4">
      <g>
       <use style="stroke:#000000;stroke-width:0.8;" x="321.915226" xlink:href="#m8f661b6c5c" y="307.584"/>
      </g>
     </g>
     <g id="text_4">
      <!-- 100 -->
      <defs>
       <path d="M 12.40625 8.296875 
L 28.515625 8.296875 
L 28.515625 63.921875 
L 10.984375 60.40625 
L 10.984375 69.390625 
L 28.421875 72.90625 
L 38.28125 72.90625 
L 38.28125 8.296875 
L 54.390625 8.296875 
L 54.390625 0 
L 12.40625 0 
z
" id="DejaVuSans-31"/>
      </defs>
      <g transform="translate(312.371476 322.182437)scale(0.1 -0.1)">
       <use xlink:href="#DejaVuSans-31"/>
       <use x="63.623047" xlink:href="#DejaVuSans-30"/>
       <use x="127.246094" xlink:href="#DejaVuSans-30"/>
      </g>
     </g>
    </g>
    <g id="xtick_5">
     <g id="line2d_5">
      <g>
       <use style="stroke:#000000;stroke-width:0.8;" x="398.482391" xlink:href="#m8f661b6c5c" y="307.584"/>
      </g>
     </g>
     <g id="text_5">
      <!-- 150 -->
      <g transform="translate(388.938641 322.182437)scale(0.1 -0.1)">
       <use xlink:href="#DejaVuSans-31"/>
       <use x="63.623047" xlink:href="#DejaVuSans-35"/>
       <use x="127.246094" xlink:href="#DejaVuSans-30"/>
      </g>
     </g>
    </g>
   </g>
   <g id="matplotlib.axis_2">
    <g id="ytick_1">
     <g id="line2d_6">
      <defs>
       <path d="M 0 0 
L -3.5 0 
" id="m79e2b9c78f" style="stroke:#000000;stroke-width:0.8;"/>
      </defs>
      <g>
       <use style="stroke:#000000;stroke-width:0.8;" x="57.6" xlink:href="#m79e2b9c78f" y="283.22824"/>
      </g>
     </g>
     <g id="text_6">
      <!-- −150 -->
      <g transform="translate(23.132812 287.027459)scale(0.1 -0.1)">
       <use xlink:href="#DejaVuSans-2212"/>
       <use x="83.789062" xlink:href="#DejaVuSans-31"/>
       <use x="147.412109" xlink:href="#DejaVuSans-35"/>
       <use x="211.035156" xlink:href="#DejaVuSans-30"/>
      </g>
     </g>
    </g>
    <g id="ytick_2">
     <g id="line2d_7">
      <g>
       <use style="stroke:#000000;stroke-width:0.8;" x="57.6" xlink:href="#m79e2b9c78f" y="250.972976"/>
      </g>
     </g>
     <g id="text_7">
      <!-- −100 -->
      <g transform="translate(23.132812 254.772195)scale(0.1 -0.1)">
       <use xlink:href="#DejaVuSans-2212"/>
       <use x="83.789062" xlink:href="#DejaVuSans-31"/>
       <use x="147.412109" xlink:href="#DejaVuSans-30"/>
       <use x="211.035156" xlink:href="#DejaVuSans-30"/>
      </g>
     </g>
    </g>
    <g id="ytick_3">
     <g id="line2d_8">
      <g>
       <use style="stroke:#000000;stroke-width:0.8;" x="57.6" xlink:href="#m79e2b9c78f" y="218.717712"/>
      </g>
     </g>
     <g id="text_8">
      <!-- −50 -->
      <g transform="translate(29.495313 222.516931)scale(0.1 -0.1)">
       <use xlink:href="#DejaVuSans-2212"/>
       <use x="83.789062" xlink:href="#DejaVuSans-35"/>
       <use x="147.412109" xlink:href="#DejaVuSans-30"/>
      </g>
     </g>
    </g>
    <g id="ytick_4">
     <g id="line2d_9">
      <g>
       <use style="stroke:#000000;stroke-width:0.8;" x="57.6" xlink:href="#m79e2b9c78f" y="186.462448"/>
      </g>
     </g>
     <g id="text_9">
      <!-- 0 -->
      <g transform="translate(44.2375 190.261666)scale(0.1 -0.1)">
       <use xlink:href="#DejaVuSans-30"/>
      </g>
     </g>
    </g>
    <g id="ytick_5">
     <g id="line2d_10">
      <g>
       <use style="stroke:#000000;stroke-width:0.8;" x="57.6" xlink:href="#m79e2b9c78f" y="154.207184"/>
      </g>
     </g>
     <g id="text_10">
      <!-- 50 -->
      <g transform="translate(37.875 158.006402)scale(0.1 -0.1)">
       <use xlink:href="#DejaVuSans-35"/>
       <use x="63.623047" xlink:href="#DejaVuSans-30"/>
      </g>
     </g>
    </g>
    <g id="ytick_6">
     <g id="line2d_11">
      <g>
       <use style="stroke:#000000;stroke-width:0.8;" x="57.6" xlink:href="#m79e2b9c78f" y="121.95192"/>
      </g>
     </g>
     <g id="text_11">
      <!-- 100 -->
      <g transform="translate(31.5125 125.751138)scale(0.1 -0.1)">
       <use xlink:href="#DejaVuSans-31"/>
       <use x="63.623047" xlink:href="#DejaVuSans-30"/>
       <use x="127.246094" xlink:href="#DejaVuSans-30"/>
      </g>
     </g>
    </g>
    <g id="ytick_7">
     <g id="line2d_12">
      <g>
       <use style="stroke:#000000;stroke-width:0.8;" x="57.6" xlink:href="#m79e2b9c78f" y="89.696655"/>
      </g>
     </g>
     <g id="text_12">
      <!-- 150 -->
      <g transform="translate(31.5125 93.495874)scale(0.1 -0.1)">
       <use xlink:href="#DejaVuSans-31"/>
       <use x="63.623047" xlink:href="#DejaVuSans-35"/>
       <use x="127.246094" xlink:href="#DejaVuSans-30"/>
      </g>
     </g>
    </g>
    <g id="ytick_8">
     <g id="line2d_13">
      <g>
       <use style="stroke:#000000;stroke-width:0.8;" x="57.6" xlink:href="#m79e2b9c78f" y="57.441391"/>
      </g>
     </g>
     <g id="text_13">
      <!-- 200 -->
      <defs>
       <path d="M 19.1875 8.296875 
L 53.609375 8.296875 
L 53.609375 0 
L 7.328125 0 
L 7.328125 8.296875 
Q 12.9375 14.109375 22.625 23.890625 
Q 32.328125 33.6875 34.8125 36.53125 
Q 39.546875 41.84375 41.421875 45.53125 
Q 43.3125 49.21875 43.3125 52.78125 
Q 43.3125 58.59375 39.234375 62.25 
Q 35.15625 65.921875 28.609375 65.921875 
Q 23.96875 65.921875 18.8125 64.3125 
Q 13.671875 62.703125 7.8125 59.421875 
L 7.8125 69.390625 
Q 13.765625 71.78125 18.9375 73 
Q 24.125 74.21875 28.421875 74.21875 
Q 39.75 74.21875 46.484375 68.546875 
Q 53.21875 62.890625 53.21875 53.421875 
Q 53.21875 48.921875 51.53125 44.890625 
Q 49.859375 40.875 45.40625 35.40625 
Q 44.1875 33.984375 37.640625 27.21875 
Q 31.109375 20.453125 19.1875 8.296875 
z
" id="DejaVuSans-32"/>
      </defs>
      <g transform="translate(31.5125 61.24061)scale(0.1 -0.1)">
       <use xlink:href="#DejaVuSans-32"/>
       <use x="63.623047" xlink:href="#DejaVuSans-30"/>
       <use x="127.246094" xlink:href="#DejaVuSans-30"/>
      </g>
     </g>
    </g>
   </g>
   <g id="patch_3">
    <path d="M 57.6 307.584 
L 57.6 41.472 
" style="fill:none;stroke:#000000;stroke-linecap:square;stroke-linejoin:miter;stroke-width:0.8;"/>
   </g>
   <g id="patch_4">
    <path d="M 414.72 307.584 
L 414.72 41.472 
" style="fill:none;stroke:#000000;stroke-linecap:square;stroke-linejoin:miter;stroke-width:0.8;"/>
   </g>
   <g id="patch_5">
    <path d="M 57.6 307.584 
L 414.72 307.584 
" style="fill:none;stroke:#000000;stroke-linecap:square;stroke-linejoin:miter;stroke-width:0.8;"/>
   </g>
   <g id="patch_6">
    <path d="M 57.6 41.472 
L 414.72 41.472 
" style="fill:none;stroke:#000000;stroke-linecap:square;stroke-linejoin:miter;stroke-width:0.8;"/>
   </g>
   <g id="text_14">
    <!-- metaV2_100p3c.txt -->
    <defs>
     <path d="M 52 44.1875 
Q 55.375 50.25 60.0625 53.125 
Q 64.75 56 71.09375 56 
Q 79.640625 56 84.28125 50.015625 
Q 88.921875 44.046875 88.921875 33.015625 
L 88.921875 0 
L 79.890625 0 
L 79.890625 32.71875 
Q 79.890625 40.578125 77.09375 44.375 
Q 74.3125 48.1875 68.609375 48.1875 
Q 61.625 48.1875 57.5625 43.546875 
Q 53.515625 38.921875 53.515625 30.90625 
L 53.515625 0 
L 44.484375 0 
L 44.484375 32.71875 
Q 44.484375 40.625 41.703125 44.40625 
Q 38.921875 48.1875 33.109375 48.1875 
Q 26.21875 48.1875 22.15625 43.53125 
Q 18.109375 38.875 18.109375 30.90625 
L 18.109375 0 
L 9.078125 0 
L 9.078125 54.6875 
L 18.109375 54.6875 
L 18.109375 46.1875 
Q 21.1875 51.21875 25.484375 53.609375 
Q 29.78125 56 35.6875 56 
Q 41.65625 56 45.828125 52.96875 
Q 50 49.953125 52 44.1875 
z
" id="DejaVuSans-6d"/>
     <path d="M 56.203125 29.59375 
L 56.203125 25.203125 
L 14.890625 25.203125 
Q 15.484375 15.921875 20.484375 11.0625 
Q 25.484375 6.203125 34.421875 6.203125 
Q 39.59375 6.203125 44.453125 7.46875 
Q 49.3125 8.734375 54.109375 11.28125 
L 54.109375 2.78125 
Q 49.265625 0.734375 44.1875 -0.34375 
Q 39.109375 -1.421875 33.890625 -1.421875 
Q 20.796875 -1.421875 13.15625 6.1875 
Q 5.515625 13.8125 5.515625 26.8125 
Q 5.515625 40.234375 12.765625 48.109375 
Q 20.015625 56 32.328125 56 
Q 43.359375 56 49.78125 48.890625 
Q 56.203125 41.796875 56.203125 29.59375 
z
M 47.21875 32.234375 
Q 47.125 39.59375 43.09375 43.984375 
Q 39.0625 48.390625 32.421875 48.390625 
Q 24.90625 48.390625 20.390625 44.140625 
Q 15.875 39.890625 15.1875 32.171875 
z
" id="DejaVuSans-65"/>
     <path d="M 18.3125 70.21875 
L 18.3125 54.6875 
L 36.8125 54.6875 
L 36.8125 47.703125 
L 18.3125 47.703125 
L 18.3125 18.015625 
Q 18.3125 11.328125 20.140625 9.421875 
Q 21.96875 7.515625 27.59375 7.515625 
L 36.8125 7.515625 
L 36.8125 0 
L 27.59375 0 
Q 17.1875 0 13.234375 3.875 
Q 9.28125 7.765625 9.28125 18.015625 
L 9.28125 47.703125 
L 2.6875 47.703125 
L 2.6875 54.6875 
L 9.28125 54.6875 
L 9.28125 70.21875 
z
" id="DejaVuSans-74"/>
     <path d="M 34.28125 27.484375 
Q 23.390625 27.484375 19.1875 25 
Q 14.984375 22.515625 14.984375 16.5 
Q 14.984375 11.71875 18.140625 8.90625 
Q 21.296875 6.109375 26.703125 6.109375 
Q 34.1875 6.109375 38.703125 11.40625 
Q 43.21875 16.703125 43.21875 25.484375 
L 43.21875 27.484375 
z
M 52.203125 31.203125 
L 52.203125 0 
L 43.21875 0 
L 43.21875 8.296875 
Q 40.140625 3.328125 35.546875 0.953125 
Q 30.953125 -1.421875 24.3125 -1.421875 
Q 15.921875 -1.421875 10.953125 3.296875 
Q 6 8.015625 6 15.921875 
Q 6 25.140625 12.171875 29.828125 
Q 18.359375 34.515625 30.609375 34.515625 
L 43.21875 34.515625 
L 43.21875 35.40625 
Q 43.21875 41.609375 39.140625 45 
Q 35.0625 48.390625 27.6875 48.390625 
Q 23 48.390625 18.546875 47.265625 
Q 14.109375 46.140625 10.015625 43.890625 
L 10.015625 52.203125 
Q 14.9375 54.109375 19.578125 55.046875 
Q 24.21875 56 28.609375 56 
Q 40.484375 56 46.34375 49.84375 
Q 52.203125 43.703125 52.203125 31.203125 
z
" id="DejaVuSans-61"/>
     <path d="M 28.609375 0 
L 0.78125 72.90625 
L 11.078125 72.90625 
L 34.1875 11.53125 
L 57.328125 72.90625 
L 67.578125 72.90625 
L 39.796875 0 
z
" id="DejaVuSans-56"/>
     <path d="M 50.984375 -16.609375 
L 50.984375 -23.578125 
L -0.984375 -23.578125 
L -0.984375 -16.609375 
z
" id="DejaVuSans-5f"/>
     <path d="M 18.109375 8.203125 
L 18.109375 -20.796875 
L 9.078125 -20.796875 
L 9.078125 54.6875 
L 18.109375 54.6875 
L 18.109375 46.390625 
Q 20.953125 51.265625 25.265625 53.625 
Q 29.59375 56 35.59375 56 
Q 45.5625 56 51.78125 48.09375 
Q 58.015625 40.1875 58.015625 27.296875 
Q 58.015625 14.40625 51.78125 6.484375 
Q 45.5625 -1.421875 35.59375 -1.421875 
Q 29.59375 -1.421875 25.265625 0.953125 
Q 20.953125 3.328125 18.109375 8.203125 
z
M 48.6875 27.296875 
Q 48.6875 37.203125 44.609375 42.84375 
Q 40.53125 48.484375 33.40625 48.484375 
Q 26.265625 48.484375 22.1875 42.84375 
Q 18.109375 37.203125 18.109375 27.296875 
Q 18.109375 17.390625 22.1875 11.75 
Q 26.265625 6.109375 33.40625 6.109375 
Q 40.53125 6.109375 44.609375 11.75 
Q 48.6875 17.390625 48.6875 27.296875 
z
" id="DejaVuSans-70"/>
     <path d="M 40.578125 39.3125 
Q 47.65625 37.796875 51.625 33 
Q 55.609375 28.21875 55.609375 21.1875 
Q 55.609375 10.40625 48.1875 4.484375 
Q 40.765625 -1.421875 27.09375 -1.421875 
Q 22.515625 -1.421875 17.65625 -0.515625 
Q 12.796875 0.390625 7.625 2.203125 
L 7.625 11.71875 
Q 11.71875 9.328125 16.59375 8.109375 
Q 21.484375 6.890625 26.8125 6.890625 
Q 36.078125 6.890625 40.9375 10.546875 
Q 45.796875 14.203125 45.796875 21.1875 
Q 45.796875 27.640625 41.28125 31.265625 
Q 36.765625 34.90625 28.71875 34.90625 
L 20.21875 34.90625 
L 20.21875 43.015625 
L 29.109375 43.015625 
Q 36.375 43.015625 40.234375 45.921875 
Q 44.09375 48.828125 44.09375 54.296875 
Q 44.09375 59.90625 40.109375 62.90625 
Q 36.140625 65.921875 28.71875 65.921875 
Q 24.65625 65.921875 20.015625 65.03125 
Q 15.375 64.15625 9.8125 62.3125 
L 9.8125 71.09375 
Q 15.4375 72.65625 20.34375 73.4375 
Q 25.25 74.21875 29.59375 74.21875 
Q 40.828125 74.21875 47.359375 69.109375 
Q 53.90625 64.015625 53.90625 55.328125 
Q 53.90625 49.265625 50.4375 45.09375 
Q 46.96875 40.921875 40.578125 39.3125 
z
" id="DejaVuSans-33"/>
     <path d="M 48.78125 52.59375 
L 48.78125 44.1875 
Q 44.96875 46.296875 41.140625 47.34375 
Q 37.3125 48.390625 33.40625 48.390625 
Q 24.65625 48.390625 19.8125 42.84375 
Q 14.984375 37.3125 14.984375 27.296875 
Q 14.984375 17.28125 19.8125 11.734375 
Q 24.65625 6.203125 33.40625 6.203125 
Q 37.3125 6.203125 41.140625 7.25 
Q 44.96875 8.296875 48.78125 10.40625 
L 48.78125 2.09375 
Q 45.015625 0.34375 40.984375 -0.53125 
Q 36.96875 -1.421875 32.421875 -1.421875 
Q 20.0625 -1.421875 12.78125 6.34375 
Q 5.515625 14.109375 5.515625 27.296875 
Q 5.515625 40.671875 12.859375 48.328125 
Q 20.21875 56 33.015625 56 
Q 37.15625 56 41.109375 55.140625 
Q 45.0625 54.296875 48.78125 52.59375 
z
" id="DejaVuSans-63"/>
     <path d="M 10.6875 12.40625 
L 21 12.40625 
L 21 0 
L 10.6875 0 
z
" id="DejaVuSans-2e"/>
     <path d="M 54.890625 54.6875 
L 35.109375 28.078125 
L 55.90625 0 
L 45.3125 0 
L 29.390625 21.484375 
L 13.484375 0 
L 2.875 0 
L 24.125 28.609375 
L 4.6875 54.6875 
L 15.28125 54.6875 
L 29.78125 35.203125 
L 44.28125 54.6875 
z
" id="DejaVuSans-78"/>
    </defs>
    <g transform="translate(177.132187 35.472)scale(0.12 -0.12)">
     <use xlink:href="#DejaVuSans-6d"/>
     <use x="97.412109" xlink:href="#DejaVuSans-65"/>
     <use x="158.935547" xlink:href="#DejaVuSans-74"/>
     <use x="198.144531" xlink:href="#DejaVuSans-61"/>
     <use x="259.423828" xlink:href="#DejaVuSans-56"/>
     <use x="327.832031" xlink:href="#DejaVuSans-32"/>
     <use x="391.455078" xlink:href="#DejaVuSans-5f"/>
     <use x="441.455078" xlink:href="#DejaVuSans-31"/>
     <use x="505.078125" xlink:href="#DejaVuSans-30"/>
     <use x="568.701172" xlink:href="#DejaVuSans-30"/>
     <use x="632.324219" xlink:href="#DejaVuSans-70"/>
     <use x="695.800781" xlink:href="#DejaVuSans-33"/>
     <use x="759.423828" xlink:href="#DejaVuSans-63"/>
     <use x="814.404297" xlink:href="#DejaVuSans-2e"/>
     <use x="846.191406" xlink:href="#DejaVuSans-74"/>
     <use x="885.400391" xlink:href="#DejaVuSans-78"/>
     <use x="944.580078" xlink:href="#DejaVuSans-74"/>
    </g>
   </g>
  </g>
 </g>
 <defs>
  <clipPath id="p1559e404f7">
   <rect height="266.112" width="357.12" x="57.6" y="41.472"/>
  </clipPath>
 </defs>
</svg>
